Suite/Test/Step Name,Browser,Description,Start time,End time,Duration,Status
Login and Buy,Chrome 75.0.3770.100,,2019-07-13 17:12:35,2019-07-13 17:13:30,54.420s,PASSED
,,,,,,
Test Cases/Test_Login,Chrome 75.0.3770.100,,2019-07-13 17:12:36,2019-07-13 17:13:07,31.238s,PASSED
"openBrowser(""www.blanja.com"")",Chrome 75.0.3770.100,,2019-07-13 17:12:36,2019-07-13 17:12:44,8.010s,PASSED
maximizeWindow(),Chrome 75.0.3770.100,,2019-07-13 17:12:44,2019-07-13 17:12:48,4.147s,PASSED
"verifyElementPresent(findTestObject(""BlanjaBeli/select_Category""), 0)",Chrome 75.0.3770.100,,2019-07-13 17:12:48,2019-07-13 17:12:51,3.271s,PASSED
"click(findTestObject(""BlanjaLogin/btn_close_guide""))",Chrome 75.0.3770.100,,2019-07-13 17:12:51,2019-07-13 17:12:51,0.107s,PASSED
"verifyElementPresent(findTestObject(""BlanjaLogin/btn_Masuk""), 0)",Chrome 75.0.3770.100,,2019-07-13 17:12:51,2019-07-13 17:12:51,0.032s,PASSED
delay(3),Chrome 75.0.3770.100,,2019-07-13 17:12:51,2019-07-13 17:12:54,3.016s,PASSED
"click(findTestObject(""BlanjaLogin/btn_Masuk""))",Chrome 75.0.3770.100,,2019-07-13 17:12:54,2019-07-13 17:12:55,1.056s,PASSED
delay(2),Chrome 75.0.3770.100,,2019-07-13 17:12:55,2019-07-13 17:12:57,2.003s,PASSED
"click(findTestObject(""BlanjaLogin/btn_login_facebook""))",Chrome 75.0.3770.100,,2019-07-13 17:12:57,2019-07-13 17:12:58,0.173s,PASSED
switchToWindowIndex(1),Chrome 75.0.3770.100,,2019-07-13 17:12:58,2019-07-13 17:12:58,0.029s,PASSED
delay(3),Chrome 75.0.3770.100,,2019-07-13 17:12:58,2019-07-13 17:13:01,3.005s,PASSED
"setText(findTestObject(""BlanjaLogin/input_email""), ""abifdhllh@gmail.com"")",Chrome 75.0.3770.100,,2019-07-13 17:13:01,2019-07-13 17:13:05,4.175s,PASSED
"setEncryptedText(findTestObject(""BlanjaLogin/input_password""), ""lbAT+ZXL0Z5Mp1vyZZ4lOw=="")",Chrome 75.0.3770.100,,2019-07-13 17:13:05,2019-07-13 17:13:05,0.176s,PASSED
"click(findTestObject(""BlanjaLogin/btn_loginto_facebook""), STOP_ON_FAILURE)",Chrome 75.0.3770.100,,2019-07-13 17:13:05,2019-07-13 17:13:07,1.747s,PASSED
switchToWindowIndex(0),Chrome 75.0.3770.100,,2019-07-13 17:13:07,2019-07-13 17:13:07,0.040s,PASSED
,,,,,,
Test Cases/Test_Beli,Chrome 75.0.3770.100,,2019-07-13 17:13:07,2019-07-13 17:13:29,22.343s,PASSED
delay(5),Chrome 75.0.3770.100,,2019-07-13 17:13:07,2019-07-13 17:13:12,5.002s,PASSED
"verifyElementPresent(findTestObject(""BlanjaBeli/select_Category""), 0)",Chrome 75.0.3770.100,,2019-07-13 17:13:12,2019-07-13 17:13:12,0.527s,PASSED
"selectOptionByLabel(findTestObject(""BlanjaBeli/select_Category""), ""Komputer & Laptop"", false)",Chrome 75.0.3770.100,,2019-07-13 17:13:12,2019-07-13 17:13:13,0.159s,PASSED
"setText(findTestObject(""BlanjaBeli/input_search""), ""macbook"")",Chrome 75.0.3770.100,,2019-07-13 17:13:13,2019-07-13 17:13:13,0.161s,PASSED
"click(findTestObject(""BlanjaBeli/btn_Search""))",Chrome 75.0.3770.100,,2019-07-13 17:13:13,2019-07-13 17:13:16,3.097s,PASSED
delay(3),Chrome 75.0.3770.100,,2019-07-13 17:13:16,2019-07-13 17:13:19,3.005s,PASSED
"mouseOver(findTestObject(""BlanjaBeli/select_sort_item""))",Chrome 75.0.3770.100,,2019-07-13 17:13:19,2019-07-13 17:13:19,0.062s,PASSED
"click(findTestObject(""BlanjaBeli/selected_rating""))",Chrome 75.0.3770.100,,2019-07-13 17:13:19,2019-07-13 17:13:19,0.172s,PASSED
"scrollToPosition(150, 300)",Chrome 75.0.3770.100,,2019-07-13 17:13:19,2019-07-13 17:13:19,0.041s,PASSED
delay(10),Chrome 75.0.3770.100,,2019-07-13 17:13:19,2019-07-13 17:13:29,10.004s,PASSED
