Suite/Test/Step Name,Browser,Description,Start time,End time,Duration,Status
Login and Buy,Chrome 75.0.3770.100,,2019-07-13 17:56:51,2019-07-13 17:58:36,1m - 44.839s,FAILED
,,,,,,
Test Cases/Test_Login,Chrome 75.0.3770.100,,2019-07-13 17:56:51,2019-07-13 17:57:25,33.279s,PASSED
"openBrowser(""www.blanja.com"")",Chrome 75.0.3770.100,,2019-07-13 17:56:52,2019-07-13 17:56:59,7.788s,PASSED
maximizeWindow(),Chrome 75.0.3770.100,,2019-07-13 17:56:59,2019-07-13 17:57:03,4.133s,PASSED
"verifyElementPresent(findTestObject(""BlanjaBeli/select_Category""), 0)",Chrome 75.0.3770.100,,2019-07-13 17:57:03,2019-07-13 17:57:09,5.327s,PASSED
"click(findTestObject(""BlanjaLogin/btn_close_guide""))",Chrome 75.0.3770.100,,2019-07-13 17:57:09,2019-07-13 17:57:09,0.090s,PASSED
"verifyElementPresent(findTestObject(""BlanjaLogin/btn_Masuk""), 0)",Chrome 75.0.3770.100,,2019-07-13 17:57:09,2019-07-13 17:57:09,0.030s,PASSED
delay(3),Chrome 75.0.3770.100,,2019-07-13 17:57:09,2019-07-13 17:57:12,3.019s,PASSED
"click(findTestObject(""BlanjaLogin/btn_Masuk""))",Chrome 75.0.3770.100,,2019-07-13 17:57:12,2019-07-13 17:57:13,1.073s,PASSED
delay(2),Chrome 75.0.3770.100,,2019-07-13 17:57:13,2019-07-13 17:57:15,2.005s,PASSED
"click(findTestObject(""BlanjaLogin/btn_login_facebook""))",Chrome 75.0.3770.100,,2019-07-13 17:57:15,2019-07-13 17:57:15,0.160s,PASSED
switchToWindowIndex(1),Chrome 75.0.3770.100,,2019-07-13 17:57:15,2019-07-13 17:57:15,0.028s,PASSED
delay(3),Chrome 75.0.3770.100,,2019-07-13 17:57:15,2019-07-13 17:57:18,3.003s,PASSED
"setText(findTestObject(""BlanjaLogin/input_email""), ""abifdhllh@gmail.com"")",Chrome 75.0.3770.100,,2019-07-13 17:57:18,2019-07-13 17:57:22,4.172s,PASSED
"setEncryptedText(findTestObject(""BlanjaLogin/input_password""), ""lbAT+ZXL0Z5Mp1vyZZ4lOw=="")",Chrome 75.0.3770.100,,2019-07-13 17:57:22,2019-07-13 17:57:23,0.171s,PASSED
"click(findTestObject(""BlanjaLogin/btn_loginto_facebook""), STOP_ON_FAILURE)",Chrome 75.0.3770.100,,2019-07-13 17:57:23,2019-07-13 17:57:24,1.990s,PASSED
switchToWindowIndex(0),Chrome 75.0.3770.100,,2019-07-13 17:57:24,2019-07-13 17:57:25,0.040s,PASSED
,,,,,,
Test Cases/Test_Beli,Chrome 75.0.3770.100,,2019-07-13 17:57:25,2019-07-13 17:58:35,1m - 10.711s,FAILED
delay(5),Chrome 75.0.3770.100,,2019-07-13 17:57:25,2019-07-13 17:57:30,5.004s,PASSED
"verifyElementPresent(findTestObject(""BlanjaBeli/select_Category""), 0)",Chrome 75.0.3770.100,,2019-07-13 17:57:30,2019-07-13 17:57:31,1.767s,PASSED
"selectOptionByLabel(findTestObject(""BlanjaBeli/select_Category""), ""Komputer & Laptop"", false)",Chrome 75.0.3770.100,,2019-07-13 17:57:31,2019-07-13 17:57:32,0.121s,PASSED
"setText(findTestObject(""BlanjaBeli/input_search""), ""macbook"")",Chrome 75.0.3770.100,,2019-07-13 17:57:32,2019-07-13 17:57:32,0.241s,PASSED
"click(findTestObject(""BlanjaBeli/btn_Search""))",Chrome 75.0.3770.100,,2019-07-13 17:57:32,2019-07-13 17:57:34,1.732s,PASSED
delay(3),Chrome 75.0.3770.100,,2019-07-13 17:57:34,2019-07-13 17:57:37,3.004s,PASSED
"mouseOver(findTestObject(""BlanjaBeli/select_sort_item""))",Chrome 75.0.3770.100,,2019-07-13 17:57:37,2019-07-13 17:57:37,0.073s,PASSED
"click(findTestObject(""BlanjaBeli/selected_rating""))",Chrome 75.0.3770.100,,2019-07-13 17:57:37,2019-07-13 17:57:37,0.133s,PASSED
"scrollToPosition(150, 300)",Chrome 75.0.3770.100,,2019-07-13 17:57:37,2019-07-13 17:57:37,0.018s,PASSED
delay(10),Chrome 75.0.3770.100,,2019-07-13 17:57:37,2019-07-13 17:57:47,10.002s,PASSED
"click(findTestObject(""BlanjaBeli/item_selected""))",Chrome 75.0.3770.100,,2019-07-13 17:57:47,2019-07-13 17:57:54,7.418s,PASSED
delay(2),Chrome 75.0.3770.100,,2019-07-13 17:57:54,2019-07-13 17:57:56,2.003s,PASSED
"click(findTestObject(""BlanjaBeli/add_to_Cart""))",Chrome 75.0.3770.100,,2019-07-13 17:57:56,2019-07-13 17:57:57,1.052s,PASSED
"setText(findTestObject(""BlanjaBeli/input_search""), ""senka"")",Chrome 75.0.3770.100,,2019-07-13 17:57:57,2019-07-13 17:57:57,0.186s,PASSED
"selectOptionByLabel(findTestObject(""BlanjaBeli/select_Category""), ""Kesehatan & Kecantikan"", false)",Chrome 75.0.3770.100,,2019-07-13 17:57:57,2019-07-13 17:57:58,0.131s,PASSED
"click(findTestObject(""BlanjaBeli/btn_Search""))",Chrome 75.0.3770.100,,2019-07-13 17:57:58,2019-07-13 17:58:00,2.662s,PASSED
"click(findTestObject(""BlanjaBeli/item_selected_senka""))",Chrome 75.0.3770.100,,2019-07-13 17:58:00,2019-07-13 17:58:02,1.528s,PASSED
delay(2),Chrome 75.0.3770.100,,2019-07-13 17:58:02,2019-07-13 17:58:04,2.003s,PASSED
"click(findTestObject(""BlanjaBeli/add_to_Cart""))",Chrome 75.0.3770.100,,2019-07-13 17:58:04,2019-07-13 17:58:04,0.198s,PASSED
"mouseOver(findTestObject(""BlanjaBeli/cart""))",Chrome 75.0.3770.100,,2019-07-13 17:58:04,2019-07-13 17:58:35,31.303s,FAILED
