Suite/Test/Step Name,Browser,Description,Start time,End time,Duration,Status
Login and Buy,Chrome 75.0.3770.100,,2019-07-13 17:19:20,2019-07-13 17:20:45,1m - 24.765s,FAILED
,,,,,,
Test Cases/Test_Login,Chrome 75.0.3770.100,,2019-07-13 17:19:20,2019-07-13 17:19:50,29.763s,PASSED
"openBrowser(""www.blanja.com"")",Chrome 75.0.3770.100,,2019-07-13 17:19:20,2019-07-13 17:19:28,7.344s,PASSED
maximizeWindow(),Chrome 75.0.3770.100,,2019-07-13 17:19:28,2019-07-13 17:19:32,4.145s,PASSED
"verifyElementPresent(findTestObject(""BlanjaBeli/select_Category""), 0)",Chrome 75.0.3770.100,,2019-07-13 17:19:32,2019-07-13 17:19:34,2.494s,PASSED
"click(findTestObject(""BlanjaLogin/btn_close_guide""))",Chrome 75.0.3770.100,,2019-07-13 17:19:34,2019-07-13 17:19:34,0.110s,PASSED
"verifyElementPresent(findTestObject(""BlanjaLogin/btn_Masuk""), 0)",Chrome 75.0.3770.100,,2019-07-13 17:19:34,2019-07-13 17:19:35,0.034s,PASSED
delay(3),Chrome 75.0.3770.100,,2019-07-13 17:19:35,2019-07-13 17:19:38,3.022s,PASSED
"click(findTestObject(""BlanjaLogin/btn_Masuk""))",Chrome 75.0.3770.100,,2019-07-13 17:19:38,2019-07-13 17:19:39,0.974s,PASSED
delay(2),Chrome 75.0.3770.100,,2019-07-13 17:19:39,2019-07-13 17:19:41,2.006s,PASSED
"click(findTestObject(""BlanjaLogin/btn_login_facebook""))",Chrome 75.0.3770.100,,2019-07-13 17:19:41,2019-07-13 17:19:41,0.140s,PASSED
switchToWindowIndex(1),Chrome 75.0.3770.100,,2019-07-13 17:19:41,2019-07-13 17:19:41,0.028s,PASSED
delay(3),Chrome 75.0.3770.100,,2019-07-13 17:19:41,2019-07-13 17:19:44,3.002s,PASSED
"setText(findTestObject(""BlanjaLogin/input_email""), ""abifdhllh@gmail.com"")",Chrome 75.0.3770.100,,2019-07-13 17:19:44,2019-07-13 17:19:48,4.196s,PASSED
"setEncryptedText(findTestObject(""BlanjaLogin/input_password""), ""lbAT+ZXL0Z5Mp1vyZZ4lOw=="")",Chrome 75.0.3770.100,,2019-07-13 17:19:48,2019-07-13 17:19:48,0.153s,PASSED
"click(findTestObject(""BlanjaLogin/btn_loginto_facebook""), STOP_ON_FAILURE)",Chrome 75.0.3770.100,,2019-07-13 17:19:48,2019-07-13 17:19:50,1.842s,PASSED
switchToWindowIndex(0),Chrome 75.0.3770.100,,2019-07-13 17:19:50,2019-07-13 17:19:50,0.039s,PASSED
,,,,,,
Test Cases/Test_Beli,Chrome 75.0.3770.100,,2019-07-13 17:19:50,2019-07-13 17:20:44,54.146s,FAILED
delay(5),Chrome 75.0.3770.100,,2019-07-13 17:19:50,2019-07-13 17:19:55,5.001s,PASSED
"verifyElementPresent(findTestObject(""BlanjaBeli/select_Category""), 0)",Chrome 75.0.3770.100,,2019-07-13 17:19:55,2019-07-13 17:19:56,0.891s,PASSED
"selectOptionByLabel(findTestObject(""BlanjaBeli/select_Category""), ""Komputer & Laptop"", false)",Chrome 75.0.3770.100,,2019-07-13 17:19:56,2019-07-13 17:19:56,0.121s,PASSED
"setText(findTestObject(""BlanjaBeli/input_search""), ""macbook"")",Chrome 75.0.3770.100,,2019-07-13 17:19:56,2019-07-13 17:19:56,0.238s,PASSED
"click(findTestObject(""BlanjaBeli/btn_Search""))",Chrome 75.0.3770.100,,2019-07-13 17:19:56,2019-07-13 17:19:59,2.690s,PASSED
delay(3),Chrome 75.0.3770.100,,2019-07-13 17:19:59,2019-07-13 17:20:02,3.005s,PASSED
"mouseOver(findTestObject(""BlanjaBeli/select_sort_item""))",Chrome 75.0.3770.100,,2019-07-13 17:20:02,2019-07-13 17:20:02,0.057s,PASSED
"click(findTestObject(""BlanjaBeli/selected_rating""))",Chrome 75.0.3770.100,,2019-07-13 17:20:02,2019-07-13 17:20:02,0.130s,PASSED
"scrollToPosition(150, 300)",Chrome 75.0.3770.100,,2019-07-13 17:20:02,2019-07-13 17:20:02,0.016s,PASSED
delay(10),Chrome 75.0.3770.100,,2019-07-13 17:20:02,2019-07-13 17:20:12,10.002s,PASSED
"click(findTestObject(""BlanjaBeli/item_selected""))",Chrome 75.0.3770.100,,2019-07-13 17:20:12,2019-07-13 17:20:44,31.877s,FAILED
